## Interface: 50400
## X-Curse-Packaged-Version: r80
## X-Curse-Project-Name: LibCandyBar-3.0
## X-Curse-Project-ID: libcandybar-3-0
## X-Curse-Repository-ID: wow/libcandybar-3-0/mainline

## Title: Lib: LibCandyBar-3.0
## Notes: Timer bars with that extra sweetness.
## Author: Funkydude
## X-Credits: Ammo, Rabbit
## X-Category: Library

embeds.xml
LibCandyBar-3.0\lib.xml

